…
We can select rows by position via `slice`. Alternatively, we can use the functions `top_n` of `top_fraq` to extract a specified number or fraction of rows. Different from `slice` these functions operate also on grouped data, and we can specify according to which variables the top rows shall be chosen. 


```r
df %>%                        
  group_by(date) %>%        # group by date 
  top_n(1, wt=Streams) %>%  # select 1 row per date, the one with the highest number of streams
  slice(1:10) %>%           # return only the first 10 rows of the resulting data frame
  select(date, Streams, Track.Name, Artist)
```

```
## # A tibble: 366 x 4
## # Groups:   date [366]
##    date       Streams Track.Name  Artist     
##    <date>       <dbl> <chr>       <chr>      
##  1 2019-03-30 1040382 Cherry Lady Capital Bra
##  2 2019-03-31  771685 Cherry Lady Capital Bra
##  3 2019-04-01  861671 Cherry Lady Capital Bra
##  4 2019-04-02  818911 Cherry Lady Capital Bra
##  5 2019-04-03  783832 Cherry Lady Capital Bra
##  6 2019-04-04  770632 Cherry Lady Capital Bra
##  7 2019-04-05  917254 Harami      Samra      
##  8 2019-04-06  836777 Cherry Lady Capital Bra
##  9 2019-04-07  698789 Harami      Samra      
## 10 2019-04-08  798083 Harami      Samra      
## # ... with 356 more rows
```
…
```r
# Apply the function round to ALL SPECIFIED columns
df %>% 
  mutate_at(vars(danceability, valence), round, digits=1) %>% 
  select(Track.Name,danceability, valence)
```

```
## # A tibble: 73,200 x 3
##    Track.Name             danceability valence
##    <chr>                         <dbl>   <dbl>
##  1 Cherry Lady                     0.8     0.7
##  2 Affalterbach                    0.8     0.8
##  3 Blackberry Sky                  0.8     0.6
##  4 Wolke 10                        0.8     0.4
##  5 Puerto Rico                     0.7     0.6
##  6 Wir ticken                      0.6     0.8
##  7 Pass auf wen du liebst          0.6     0.3
##  8 Alleen                          0.7     0.9
##  9 Ya Salame                       0.7     0.4
## 10 DEUTSCHLAND                     0.5     0.2
## # ... with 73,190 more rows
```
…
```
## [1] 5
```
If there is no predefined function, one can define an anonymous function (which cannot be used outside this context) on the fly:

```r
# transmute is a variant of mutate
df %>% 
  mutate_at(vars(danceability, valence), function(x) x*100) %>%
  select(Track.Name,danceability, valence)
```

```
## # A tibble: 73,200 x 3
##    Track.Name             danceability valence
##    <chr>                         <dbl>   <dbl>
##  1 Cherry Lady                    83.8    65.4
##  2 Affalterbach                   81.9    76.6
##  3 Blackberry Sky                 80.5    64.7
##  4 Wolke 10                       77      39.3
##  5 Puerto Rico                    68.7    62.9
##  6 Wir ticken                     63      82  
##  7 Pass auf wen du liebst         59.2    31.5
##  8 Alleen                         73.2    92.7
##  9 Ya Salame                      71.4    40.8
## 10 DEUTSCHLAND                    52.1    23.7
## # ... with 73,190 more rows
```
…
The `count` function is a useful shortcut for `group_by` followed by `summarise(n = n())`.

```r
df %>% count(Artist)
```

```
## # A tibble: 585 x 2
##    Artist                     n
##    <chr>                  <int>
##  1 *NSYNC                    13
##  2 102 Boyz                   9
##  3 18 Karat                 175
##  4 24kGoldn                  26
##  5 5 Seconds of Summer      109
##  6 88-Keys                    1
##  7 a-ha                       1
##  8 A Boogie Wit da Hoodie   203
##  9 A$AP Rocky                 7
## 10 AchtVier                   1
## # ... with 575 more rows
```
…
Sometimes, we want to add the (group) aggregates as a new column to the existing data frame. In this case we just use `mutate` rather than `summarise`. 

```r
df %>% 
  group_by(date) %>%
  mutate(Total_Streams = sum(Streams), Share = Streams/Total_Streams) %>%
  select(Streams, Total_Streams, Share, Artist)
```

```
## Adding missing grouping variables: `date`
```

```
## # A tibble: 73,200 x 5
## # Groups:   date [366]
##    date       Streams Total_Streams  Share Artist     
##    <date>       <dbl>         <dbl>  <dbl> <chr>      
##  1 2019-03-30 1040382      30400557 0.0342 Capital Bra
##  2 2019-03-30  822209      30400557 0.0270 Shindy     
##  3 2019-03-30  704316      30400557 0.0232 Eno        
##  4 2019-03-30  681426      30400557 0.0224 MERO       
##  5 2019-03-30  557781      30400557 0.0183 Fero47     
##  6 2019-03-30  534339      30400557 0.0176 Capital Bra
##  7 2019-03-30  487419      30400557 0.0160 Ufo361     
##  8 2019-03-30  466665      30400557 0.0154 KC Rebell  
##  9 2019-03-30  449259      30400557 0.0148 Luciano    
## 10 2019-03-30  415859      30400557 0.0137 Rammstein  
## # ... with 73,190 more rows
```
…
