4 Dates and times: lubridate | R Data Science Book
…
4.6.2 Rainfall

4.6.2.1 Sum with condition

The question here is, how long has ist rained during an hour/day?
There are two different possible aproaches. One is without the binary indicator and the other uses it as a switch.

Without indicator

## # A tibble: 24 x 4
## # Groups:   STATIONS_ID, STUNDE [24]
##    STATIONS_ID STUNDE   TAG `sum(NIEDERSCHLAGSDAUER)`
##          <int>  <int> <int>                     <int>
##  1        2564      0     1                         0
##  2        2564      1     1                         0
##  3        2564      2     1                         0
##  4        2564      3     1                         0
##  5        2564      4     1                         0
##  6        2564      5     1                         0
##  7        2564      6     1                         0
##  8        2564      7     1                         0
##  9        2564      8     1                         0
## 10        2564      9     1                         0
## # ... with 14 more rows

With indicator and renamed column

## # A tibble: 24 x 4
## # Groups:   STATIONS_ID, STUNDE [24]
##    STATIONS_ID STUNDE   TAG MENGE
##          <int>  <int> <int> <int>
##  1        2564      0     1     0
##  2        2564      1     1     0
##  3        2564      2     1     0
##  4        2564      3     1     0
##  5        2564      4     1     0
##  6        2564      5     1     0
##  7        2564      6     1     0
##  8        2564      7     1     0
##  9        2564      8     1     0
## 10        2564      9     1     0
## # ... with 14 more rows
…
