6 Character data: stringr | R Data Science Book
…
Probably the real life use cases are rather technical, but we hope the uses cases above provide some clarity of why stringR might be useful.

6.1.2 Types of data, which could be used with stringR

The way you use the functions stringR is dependent on which kind of data you want to analyze.

The simplest example is, one word as an entry in every box, e.g. the in the column job, there might be an entry “cook”. Here stringR is best for formatting the words. StringR can also be used on number entries though.

But there could also be several words in one box, e.g. the tags for a computer game: “singleplayer, action, medieval”. stringR can help you to format these multiple entries better.

By having a closer look, we were under the impression that stringR is mostly desgned for the purpose of managing and analyzing full texts or longer strings.

At this point, we want to give a hint, that full text analysis as done by text mining on a full text, e.g. the novel The Time Machine by H.G. Wells, doesn’t operate on a long text as a whole string. But it rather tokenizes the text first (Silge Robinson 2017). That results in the situation that every word is put in another row, as you can see here:

## # A tibble: 32,653 x 2
##    gutenberg_id word   
##           <int> <chr>  
##  1           35 the    
##  2           35 time   
##  3           35 machine
##  4           35 by     
##  5           35 h      
##  6           35 g      
##  7           35 wells  
##  8           35 1898   
##  9           35 i      
## 10           35 the    
## # ... with 32,643 more rows
…
